<?xml version="1.0" encoding="utf-8"?>
<!-- Generator: Adobe Illustrator 23.0.1, SVG Export Plug-In . SVG Version: 6.00 Build 0)  -->
<svg version="1.1" xmlns="http://www.w3.org/2000/svg" xmlns:xlink="http://www.w3.org/1999/xlink" x="0px" y="0px"
	 viewBox="0 0 1592 230.67" style="enable-background:new 0 0 1592 230.67;" xml:space="preserve">
<style type="text/css">
	.st0{fill:#FFFFFF;}
	.st1{font-family:'MatisseElegantoPro-B-90ms-RKSJ-H';}
	.st2{font-size:208.9814px;}
</style>
<g id="GAMING_x0D_FORUM_x0D_KNOCKOUT">
</g>
<g id="YEAR_1:_REVIEW">
</g>
<g id="And_yet_I_x2019_m_still_not_sure_there_exists_a_place_where_I_belong_1_">
	<text transform="matrix(0.6303 0 0 1 13.3331 180.0622)" class="st0 st1 st2">Since March 4, 2019...</text>
</g>
</svg>
